3586
7742
1840
7381
1862
4560
8412
5553
1422
4187
8989
6668
4796
1376
6946
5689
4655
5901
6280
2088
8771
2449
4783
2178
6339
959
3132
7850
3860
8371
3895
9617
874
9747
2323
9351
9113
2267
1773
5858
8289
9551
2570
6354
9988
7375
983
7252
451
2621
6375
928
1082
9214
5270
427
9117
2040
4860
8817
7287
7198
3898
770
9963
4757
3840
131
3797
9482
7892
1648
4653
2033
6850
4057
6249
6325
2271
8279
1902
4843
2737
4197
144
820
9084
7933
6799
1135
3560
9327
6010
4325
8925
24
223
2945
1081
1289
6610
6561
3409
5711
6798
5527
4422
2712
4205
6866
6405
5909
1935
7837
376
3801
1635
4192
4993
1615
7500
3240
3796
7958
314
3927
4030
4430
8378
1790
6587
1479
9981
3153
6725
2394
4166
449
5762
8981
8224
2376
5891
5977
7217
1679
8129
1070
4593
8454
6715
3196
8932
3345
1056
7487
4423
9147
1780
6693
1066
6028
5962
8564
1561
3399
2665
9886
8675
9583
6009
1814
9598
177
3424
4320
2722
7843
2707
5311
3401
2149
3336
6562
7339
5184
1659
7331
755
7636
660
4781
2982
1597
6891
8315
6045
5288
2196
1534
5667
6572
8513
1445
2555
4324
7797
7285
6733
3070
4023
2051
9615
8904
7097
7332
6103
4601
3814
524
502
8746
3583
1515
497
1869
9477
5449
4176
5707
519
2998
6350
307
7653
4780
5608
5936
9280
631
2018
2688
6204
5089
6432
6488
4665
5160
1329
5019
4469
1308
7450
6711
3340
3857
6400
6296
6574
6193
46
4617
8387
8912
7267
6203
4978
5994
3911
5241
9099
4940
6687
6332
9670
187
4375
8420
2282
3645
1204
4362
1451
9475
4280
3172
5894
3834
617
9219
2634
3438
2733
8679
7499
8635
2488
1176
1750
56
6306
796
559
9630
939
4963
454
5785
6228
3992
9170
9027
2575
6149
7631
719
4606
5548
59
31
8295
58
1796
267
5007
8075
7924
4329
1974
8716
4742
8527
41
9990
727
4666
6216
2929
2044
1150
2347
1909
3390
6484
5658
8469
1399
4715
8559
2233
1011
7116
4691
4221
7635
6993
9088
6690
4825
2009
4220
6275
1180
2928
5466
5049
8602
4975
3811
6212
2530
8076
6570
6298
2036
7548
6903
5691
6171
4287
6581
74
4644
7828
160
9450
9806
1468
7867
3433
5328
8068
6081
1117
902
7472
72
10
1706
6439
3901
6378
3848
5402
4732
2280
2419
8733
9516
7801
6643
1205
1107
2877
9743
8903
6254
138
6601
6318
1437
7041
8192
9584
2116
2842
7848
7355
8895
5431
6539
9109
6195
5273
5257
88
1809
6362
3259
2408
9131
624
6569
4259
6805
7403
606
8878
5418
4243
1297
3315
4968
5883
1472
4117
391
9845
3960
1398
285
7415
7825
7996
557
3130
2185
988
3439
5659
7464
5824
1885
1348
6427
9807
4631
5481
645
732
5614
8916
1555
8499
305
6826
8228
2890
5080
4725
3640
1944
7441
1988
8753
3449
9180
7303
6935
7798
5920
1257
3575
6233
2586
3300
8692
5173
7227
8110
3253
8652
1870
2509
8651
5772
6256
1775
5680
9378
339
6376
9387
8473
1749
2296
4778
7753
3293
9380
1028
7607
2894
2664
3609
9875
3420
184
5217
9892
846
9197
212
4255
6597
563
3146
6929
7886
4635
6734
1953
6543
1745
254
8515
54
5298
6357
3260
2387
4250
6738
9282
4113
9786
4060
381
9996
404
587
3624
4976
4022
4013
9453
7488
68
7855
5919
5326
5034
5425
3055
7154
2734
2547
7264
5291
6237
4399
921
5012
247
987
2306
8244
5245
5829
7280
4667
7762
3972
3025
2609
4629
6802
4151
2515
3839
6053
1210
749
6159
2969
6594
9731
807
6444
591
1715
108
4779
7038
809
1917
8417
8087
4366
8705
2190
747
5021
4719
4290
6337
2833
1227
4262
6150
8935
8222
9465
6178
7127
7823
748
50
5057
3133
1272
6781
3471
9433
1359
4439
3561
2574
2841
4145
7142
8736
3308
9199
5808
6162
2435
4182
7627
9114
3550
7605
9089
5059
8445
4183
8585
3028
4447
4744
5148
3363
6558
8738
8182
3948
4507
814
1316
2249
794
3081
91
9544
5562
7125
3397
249
9748
8271
9970
8140
1414
3036
8575
2832
4687
7993
5207
4613
7191
6974
6331
8382
9536
6014
9321
1764
2655
5540
7672
8842
8
5705
5733
8322
9608
8461
5984
3628
3303
3122
9675
4143
8082
8558
7698
5458
2924
3551
5236
1476
5792
7879
2201
3537
602
8531
2476
3423
4167
5583
5948
4608
1907
6418
612
4396
6157
3739
7188
7164
9145
1320
6446
9895
8851
6416
7136
5281
3523
3090
2801
6786
140
130
3951
3875
5761
576
8147
4292
6987
6658
353
4911
6450
4819
1290
3673
9242
3006
903
7941
3999
8167
7651
2100
8361
232
4273
5014
7101
1925
7176
5965
7935
9624
8430
4520
1002
3773
4441
3238
5151
4866
2086
4388
8355
9332
665
9964
6146
7761
3347
2984
3442
1987
8229
3644
3986
515
2379
7246
3589
5200
4864
7777
2934
8347
2604
7232
5698
3884
5250
9976
8914
278
4726
5278
6241
7182
1256
2137
5997
8812
6190
4120
8659
2048
5424
8333
5302
6199
200
470
4118
5694
610
1685
2618
2063
5169
2543
3429
9980
863
4198
3109
5674
2378
1238
6695
4736
6409
2596
9942
2406
8101
528
6909
6748
6080
6635
3138
614
4449
1255
3416
7868
9063
5913
8899
1787
1921
7567
146
8443
2585
3333
9348
6856
4832
8645
716
3748
9859
8272
6893
4688
3842
2679
9701
2330
2792
53
1759
5219
2175
7883
6962
4883
6454
4164
228
113
2997
7095
3663
4792
8376
4752
8022
1674
5477
5771
8002
4076
1837
6291
7603
7836
2520
7872
7760
2974
7515
5478
1650
5117
3190
7813
4844
1521
5568
1328
9955
9021
7706
9042
1846
622
5248
9065
6554
6699
7143
6272
4425
9809
4127
2756
1313
1527
3348
7830
7011
5211
206
656
6546
6595
5582
8649
8526
4082
3265
8655
5703
4790
5959
8447
5362
3524
4279
6064
1380
7208
9017
9631
9081
4639
7493
8190
1302
8042
3762
733
4178
235
5229
8923
6619
9915
1763
8037
5464
546
5300
2674
5981
5679
1599
2930
9780
9729
6982
4108
9965
5156
489
6680
1970
4046
2978
1087
6714
8233
2498
9358
3351
544
6089
4414
5602
5621
1156
9007
3421
1673
1157
7752
2538
8622
8695
7159
5155
4421
4724
9307
4336
593
922
3091
8095
8612
433
8106
2666
5380
5910
3859
3288
2059
1012
1142
5643
7435
8951
5597
1526
9189
4577
5114
5004
1241
1474
84
103
8908
1295
156
8435
6276
974
3827
8174
5005
8267
8156
8467
5222
9171
3110
6995
6292
2704
2901
9934
2261
549
5314
8699
1624
2731
3742
469
5545
8541
3368
9726
5175
9683
7330
7134
9909
3286
1983
4522
5213
2096
5912
3235
196
952
2368
1315
4308
5630
4612
5755
7516
2687
5122
5419
8888
1303
3745
3270
647
4634
4882
3756
3647
3512
5078
6614
5878
5869
4419
5942
1792
6654
8171
7666
782
3559
1223
1172
4623
1889
5745
5032
7832
1269
1481
43
1942
1059
4646
1138
9368
6889
4301
7006
1195
5498
6656
3602
6535
8588
687
9549
4893
8462
2663
9082
209
8623
4305
2695
9297
801
8704
688
5197
5041
3241
4534
6696
8723
4789
7446
6202
5996
261
2619
9636
6365
884
2396
1367
7768
7479
6034
7272
6834
5923
279
7948
4586
7934
4611
7017
3818
1701
777
1913
8889
1090
9254
3813
1063
9834
9798
280
3227
1868
6098
7552
9118
5158
1772
3493
8762
4622
674
2089
9738
6750
8428
6084
7460
6239
8238
3274
7679
9602
4733
842
2501
4196
6342
153
1397
6100
5441
3704
2481
1118
9181
392
4231
9734
6670
3239
1827
5309
6361
9498
1989
8909
6220
3760
7527
6652
5104
7721
7702
1260
3536
2222
8071
5646
5171
8220
9464
2212
4360
7812
1683
8206
6192
2400
1291
3639
3853
8770
6973
6489
320
9603
4379
6780
8212
5262
6990
1173
4588
6147
8060
7394
2256
6055
7256
5896
2473
2135
5218
9735
9697
5108
3182
3513
2502
4959
8038
6173
6421
6283
993
9644
6396
526
9560
8642
2301
2558
1396
1899
1589
6519
216
632
1243
4393
5647
5557
6240
8318
6078
8264
7498
2533
7681
3456
6071
9349
4537
7563
2139
1740
4641
4529
1729
3158
6730
4728
2913
7656
9209
2607
7542
3298
9293
7929
5025
514
7382
5414
9205
2601
774
2
312
8277
9645
1628
5055
8313
3354
3320
4648
7315
3595
4545
4897
2286
6895
7069
1179
5124
3418
1927
2799
5769
2754
8020
3492
1692
1446
9913
2093
6651
414
9237
4395
1121
2111
8638
6443
1758
7543
8898
3167
4418
218
6011
9485
1543
8778
8544
7128
6381
6917
9455
8971
5440
7703
4677
7119
400
4233
4971
7667
1817
3464
2869
3059
4186
21
3973
2568
2976
2466
9870
374
4656
73
9772
3117
1728
6777
3299
7648
9390
8432
6476
1153
6944
8958
7966
5377
3060
7327
7887
5483
6340
5510
5938
6356
9152
1634
237
9920
9167
354
8797
2236
3175
5710
6347
7376
3709
9725
4994
9927
9511
8448
5363
5192
9830
9936
7465
2527
2891
1047
8409
4155
5316
7959
2206
893
9508
2007
2365
4137
871
7532
8298
182
3882
3189
9195
9666
5774
6888
4833
2407
639
4433
3971
2680
729
3504
5620
4972
7051
3945
3886
8550
897
1403
127
963
4791
9507
7522
2804
1016
9857
4650
387
3629
718
4199
8601
4857
6035
806
2105
6312
9995
582
7237
8123
3793
5335
5939
6628
4965
2662
5409
5918
6568
1187
8185
52
1453
4894
4026
6037
8148
2322
7995
4087
836
6139
3727
9515
4711
268
3641
8656
3783
6994
9685
6039
7829
3862
3496
7517
7599
1496
2072
8416
5566
9160
2239
6983
3679
5361
9883
6552
2133
3316
3938
9647
8377
9177
6823
4110
7045
7283
8567
9894
4503
2028
6025
4055
3708
1747
7606
8717
1331
8512
8356
2940
8576
3187
6969
1164
3068
2232
3776
474
6391
6316
4004
7778
4770
8045
6398
3662
2750
3547
4761
2870
9519
885
8735
659
8030
6082
8829
5544
9150
1249
584
3142
8839
9742
8628
6048
5873
1421
6477
5670
2657
678
9394
6214
7005
2793
4890
6197
8404
7729
1425
5911
7093
4949
6054
7897
7718
129
3150
4880
3084
6269
8500
5519
5332
2715
6166
2780
3092
8540
6591
4215
9708
7269
1990
8803
4277
3962
1284
558
689
1923
9958
9548
4981
3494
5509
6471
6482
8472
4444
7807
3908
1427
9056
6862
1025
1546
821
7772
7181
6456
942
5067
4298
1037
6330
536
7221
7016
7112
7513
766
7193
1065
3481
1823
711
1471
3891
3296
17
7625
2730
5162
904
589
1892
6732
1769
3817
5490
5305
8712
3549
6752
1280
1687
9034
7359
6496
6464
1653
9818
9897
7023
1576
8599
3726
1484
2503
9843
1959
9035
1801
803
4296
4567
6481
7615
6676
5715
2491
6771
8560
7632
5871
7212
2506
3696
2299
883
7576
3135
4526
4626
4401
9824
6200
5835
1643
1178
347
9622
318
4309
2279
6386
7816
4043
3179
694
8117
1587
5073
8165
2171
2465
9837
6573
2097
7400
9474
734
3990
9058
5473
1642
8587
9880
6135
9540
1835
6497
1811
1438
7824
802
701
8977
9931
7089
2485
8183
2459
8885
9781
3380
3099
5407
8036
4159
545
5375
539
8934
538
6642
9012
4826
5087
4162
167
9334
3039
3204
9829
913
8024
1583
7620
7926
8620
4643
4488
9925
2677
4275
9812
4950
5866
2429
1052
2383
7692
9428
9462
3042
4973
7957
1744
6198
7693
1682
6551
8408
4367
6063
5113
8363
7628
6224
8777
484
3816
1887
3079
7333
6067
1225
2418
6947
2492
380
9514
6596
4693
811
2943
6664
1608
1402
9616
4179
9276
6858
3460
9090
4172
7863
3131
5604
4341
1314
101
5052
213
8152
7939
2871
1735
6366
215
100
6932
3507
3870
2805
2150
1457
7841
3768
7630
5244
4032
476
3775
4077
6912
6344
626
1004
3486
5347
6102
1696
8043
9800
2548
1594
2642
1185
3358
6072
9263
9805
6871
3798
8900
865
7076
7151
2432
6878
3383
2085
4689
8892
7623
5603
8389
2885
615
3694
4014
293
5137
5637
509
3763
8697
6494
2411
6255
2257
2698
5496
965
4101
4021
2796
6049
6000
5471
9233
7756
985
3169
1477
4157
4453
6698
9153
4547
1309
7319
2234
4926
3675
7344
4063
9799
9446
1385
7842
4679
8458
7731
5618
995
1548
6153
6553
9235
9190
2925
5638
3529
8671
5183
5360
9447
5684
7096
958
8861
9765
3426
5294
9563
7570
2202
8984
2195
788
9030
4669
8536
823
5956
7716
3144
4685
1431
3878
5613
8142
5322
5940
4698
5908
5203
496
9783
4288
257
2996
697
8556
6796
4045
1186
384
986
2061
8486
5750
4549
6942
9621
6957
2882
3112
9314
3977
6018
5143
2184
7694
3682
3521
495
4420
7083
4811
1129
4511
6403
8281
7983
9580
7448
9922
8455
1281
1130
3579
5421
2961
4841
4818
456
8964
4657
7974
2242
9715
1036
4842
1839
5210
3630
7357
4426
346
7371
8240
3780
7596
7091
1213
499
1794
5494
8138
1131
9959
1014
7791
4040
5392
2127
784
3607
1969
9706
3947
5287
8218
225
9732
6857
3558
8764
9556
9044
252
7030
4664
5088
6824
5567
1486
9592
7219
4917
7372
6813
1891
4943
7654
1656
4036
8961
2199
8752
9132
2179
8600
6277
4495
8257
2875
876
9024
6768
2031
8727
5561
5120
6042
979
501
1821
7133
9695
7087
3824
9174
5526
1900
119
1152
8092
4483
8393
412
2220
1774
6348
9267
4862
1155
9408
2702
7473
3723
1169
2027
4877
2327
3479
9678
3893
1381
3406
9573
927
588
3446
743
7912
9898
5596
8145
8352
2148
2110
8694
671
9823
1429
2395
8882
5444
1518
2268
1501
523
6510
6972
5626
8835
3222
5857
5058
8674
6997
8808
668
8843
1440
9436
3528
9071
981
3111
3750
6273
6387
1062
6648
1114
4599
8021
4701
6017
6466
9862
9565
9792
5734
4756
5119
6453
7710
1723
8972
8058
9389
300
1
8466
2486
9969
4059
3752
5165
1226
824
9827
9609
1171
4355
8962
1024
4256
7776
256
1791
3430
8873
5874
7160
291
3615
9833
1387
4479
4134
7649
4602
4065
6724
5508
3275
6646
2751
7343
1898
651
2341
4509
7391
7690
1199
579
2993
102
1584
2668
3017
1557
7712
1535
1946
1777
5610
3391
3186
9487
452
4645
2479
9416
4900
8187
5364
7430
2874
9328
4353
7608
5374
6625
3019
1762
5845
8595
4443
9582
4703
8755
1318
6134
899
189
3251
9867
8319
9654
3538
7179
1493
2164
8532
2077
408
9032
6633
1001
7847
2789
975
925
1748
7751
1123
2372
6898
3576
1625
4168
5570
63
9902
3152
3285
1407
6
869
5681
1447
679
8922
5367
7155
1770
775
6608
7612
2966
2779
8508
397
9166
3218
7905
4803
1984
6709
1133
3210
6506
8105
5572
2240
8172
325
1800
7298
1705
2778
145
1660
5972
6761
8369
2314
7610
5854
7390
2849
756
1274
3164
1784
684
2010
6848
9273
6926
2499
2289
8641
2017
1766
352
8518
4499
1929
5650
9046
239
6829
1623
2470
2012
2970
4642
3887
1259
9938
6397
6172
2422
3139
2337
7560
9323
3034
1166
5574
2388
6326
6913
4797
1428
2107
7833
4848
954
3431
2785
710
8372
6293
8100
8345
1105
3173
126
3024
6207
8765
7593
4708
8419
5378
7909
7507
7647
4455
4222
6842
1867
1452
9316
7763
3635
3876
7882
4722
2015
432
2260
6219
8320
5648
7451
9545
6766
217
7590
9165
5274
479
3118
3165
6308
2742
2675
3050
2532
4595
7360
6118
7986
9954
5957
5849
3922
532
1651
7293
6710
1017
8525
6584
1532
692
5895
6230
3198
735
868
4083
9916
9112
957
9033
2743
8744
5400
1222
4223
6062
9481
4238
8312
9101
7852
7745
3010
4573
7486
3749
6284
3787
1613
7373
3885
1491
9402
3432
843
6936
2837
3192
848
6411
5605
8739
4374
9002
2624
2151
7210
7786
5469
64
7231
5563
5349
1539
7405
7004
619
8262
9923
4800
1895
3578
8555
9941
3254
3453
2711
3777
6563
7162
7066
3478
918
4680
9264
949
6449
4383
9347
8484
8978
379
5234
3608
115
3248
9794
3989
1307
4592
9820
7519
7943
1798
149
9444
4618
6922
8713
7175
607
2227
5237
6368
3137
1503
2952
3457
9533
1553
8772
8052
121
1851
8191
2340
6358
3330
5531
5064
6383
829
2529
5081
4177
310
262
9053
2092
6579
548
6419
8577
1127
5791
9415
1079
8266
9930
1327
5565
9960
7495
4942
4684
9985
1520
1572
5591
8681
941
3837
3799
9810
2536
3584
3302
3961
8920
8406
7650
1483
6302
8310
935
1033
9018
1639
1781
3407
6683
5066
1216
1876
1724
8826
1949
8126
9141
3085
2309
4276
5187
2351
1239
3462
7581
2284
4477
1026
8261
2054
5934
1494
664
9243
2339
4512
728
5652
2026
7972
1805
3683
1689
8492
1540
9791
422
8994
1570
1636
603
1183
6191
5045
9173
4097
1317
1605
9986
7724
1168
61
9802
139
2483
3276
9064
8234
8644
4769
9881
3919
9052
8112
4945
8999
516
3332
8522
982
5438
1310
9694
5106
5091
8626
6420
5700
5925
6119
8533
2935
7676
535
5861
1266
3903
3946
4437
6263
8647
6632
7437
3987
1235
7059
4948
1214
5230
3237
8967
4678
1043
9932
7535
3747
3306
2854
5756
6904
4263
7537
6557
5128
9663
6257
642
8344
6907
2603
531
2209
7471
9393
7726
3425
7281
5802
7790
6384
7774
3993
7781
6001
2241
1288
4438
7569
5987
5662
3830
4042
4271
1802
9822
4927
3371
5964
5804
5971
5065
5460
5547
7100
7276
618
3688
6918
8848
3807
8338
527
596
4915
3027
4777
1339
2042
2043
7014
2814
6338
2765
5844
7894
7098
8685
5945
5816
9188
1595
1285
2944
7862
9684
1807
3658
8274
9318
512
4132
6774
9711
2167
1849
2822
7019
7771
3214
8379
6531
4434
4964
7346
1916
5601
1409
799
9120
6742
9637
4749
6684
3176
4919
9973
7108
9534
3230
6107
3843
8943
7186
8631
3929
4763
4632
3564
35
7312
2504
3942
3080
9333
5535
9360
917
2390
6817
1958
3035
8740
8263
8799
6404
2892
6740
7348
4352
3223
7908
891
6660
5109
2963
644
2346
324
8205
6779
7418
1632
6108
8188
2912
7675
9258
241
3587
880
9239
6618
234
4017
2903
20
6986
8131
7723
4148
9135
3610
9353
8504
9448
9059
5035
4628
4412
8782
5712
930
7157
264
7558
1460
8239
2386
1108
2746
1103
4582
434
5730
1854
1943
7572
6243
2979
6217
6731
7652
7021
8662
5201
9470
6692
8940
6185
9698
9069
9640
2060
3119
892
722
9479
4284
9095
2310
2490
7222
4071
7223
7035
9977
6839
3195
5381
4794
786
5127
9641
8368
2047
7510
9284
999
8474
9054
459
174
5663
4912
7262
9896
5530
7915
1797
4990
3470
7107
4997
6327
5254
667
832
4564
6123
7018
9668
5405
1237
5085
9893
4370
1202
5995
8255
9172
5097
4332
4068
3264
4314
9876
3668
4740
2019
8114
6762
8015
2907
5164
3979
3930
9642
8690
4391
2812
4027
9383
7496
6791
1815
6094
3465
8657
2606
1112
8887
3916
2905
2170
2777
1294
638
5664
2649
7132
7660
8115
8879
9414
2287
3476
5368
773
3434
8763
4475
1504
134
2557
6793
1424
7085
721
1330
9770
2724
8177
7265
2576
3653
9943
681
8287
4372
467
2317
8913
6600
9306
4576
3570
2824
9437
550
8217
8197
3266
2129
438
1273
6505
8449
8155
3554
3904
5138
6478
752
2911
9493
1511
8396
572
553
3095
9344
920
4745
4871
7846
2285
5725
1751
1261
8614
8465
6232
1181
5313
2277
5537
5687
3126
3580
3208
5578
9771
3772
6137
2933
6229
2650
8805
263
4160
8785
8479
5768
7383
4886
3826
7554
653
6140
1843
6019
742
6773
5688
7896
9595
7601
9634
7564
3436
5130
5884
8414
9611
96
6743
1245
6970
889
7202
9727
6260
492
7792
9111
9713
5263
5145
7805
8947
3883
839
8056
5351
5954
5514
9126
9629
7952
3769
7468
3321
8421
2951
14
6874
2866
4686
8033
9376
955
7271
2953
815
4413
706
5831
5823
2276
5779
8546
3304
5897
9676
9036
7961
1847
8292
6671
1009
2572
3542
1954
7131
7689
9467
7251
7436
2180
6672
5386
369
6688
2443
6336
6992
9539
8791
5086
9003
768
8928
6475
9865
4784
6855
6843
7732
2208
1732
5724
636
7020
3646
6493
2941
8291
9425
4974
4539
1177
4984
4224
6349
8730
7428
7680
5399
1698
6463
3398
522
6144
541
5427
2385
2531
4521
47
736
5325
5343
2131
7166
3555
9004
7884
4982
7062
7695
1101
3519
2300
83
7876
7187
1694
2159
7808
808
9224
5502
4988
8395
8258
5443
3700
3145
26
948
561
9760
2152
1554
6112
4675
5573
2424
9978
6423
6661
2001
4654
2794
5191
9841
5635
1433
7969
7598
6756
6143
7296
7078
3056
1976
4865
2235
4133
6881
143
5484
2147
9472
5102
7686
3720
8335
5642
9345
6525
2862
3949
8353
769
8496
1078
1369
9618
5226
5627
8619
717
7684
1824
3978
4930
2382
8519
5276
703
1733
4028
8203
3162
5722
9420
322
9342
4505
8061
2472
1719
8991
6061
1357
7240
5588
3362
4478
6467
6641
9133
3360
3044
6678
5926
2237
5023
3655
1531
6933
9968
1767
857
7582
4992
79
6412
401
2066
3089
192
1449
6985
5321
274
6516
1207
2123
1841
3806
1049
6161
9546
2263
2761
2073
4476
7250
2816
4905
6104
9435
2477
7951
3880
964
569
2389
3506
677
8604
3482
2440
7921
8354
5123
9497
2583
6388
8397
3754
3469
7321
833
7161
6065
705
9045
8670
9526
4398
9847
1566
5753
4548
8957
9067
4516
5941
8663
6077
835
1404
6804
9086
5331
3803
2566
9904
8760
2865
3402
4363
682
5795
7851
5373
3022
6307
6030
5179
8827
6341
2344
580
2274
1038
908
3491
2225
517
7571
8439
3781
9817
5832
1287
9604
1545
6508
4228
8988
6003
7284
2931
7980
4696
5428
3612
8718
5003
1979
5558
2936
1646
3717
5978
4590
2947
4098
1495
834
8793
9105
8456
4394
7885
1389
3381
5301
9661
6164
1306
3600
8844
7658
1906
2617
7452
8707
1013
4326
9355
5382
9272
4268
1542
3897
8373
9984
304
5202
3116
2784
1603
1611
246
8747
3078
3033
4029
4327
8102
2357
5581
8507
133
7453
1224
4328
7434
8485
2207
1652
1678
3127
6988
772
7907
9537
1148
2103
1305
371
1547
1662
2646
961
8927
135
265
1120
3356
2288
8366
9754
2595
4111
6322
1196
9657
685
5520
9523
5889
1094
6686
4821
7413
7947
9386
8880
6282
1073
8041
6390
468
4786
4454
8618
2008
3244
1401
6801
4200
7514
1356
7869
4856
4969
6132
8804
1027
6589
6657
2942
7168
1610
8437
1459
6722
8968
4257
4562
4260
673
3981
3802
7629
3654
7054
1755
5095
3815
2957
2343
5960
4527
6499
9907
2439
7336
6534
8051
330
7917
9379
9361
5181
1575
510
8120
4380
8876
4869
4033
2192
8990
8896
9460
6940
3346
3676
1994
1528
6960
8200
6564
2273
430
9619
8866
4515
1855
9787
9244
7965
5068
9134
7317
5131
4095
3326
3319
3307
627
5401
8677
3896
5423
1822
6999
8268
6764
1125
4369
5607
3764
471
3954
6863
419
3686
4672
2637
5038
2173
2046
6606
6629
6659
1430
5223
6186
5235
6213
2119
8149
2113
6955
1933
461
9385
1842
8860
7275
3337
9849
3384
6410
3994
5265
9208
1912
9019
2537
5247
178
4079
3520
1627
3713
3283
9029
5927
2632
7075
2710
543
5195
3335
2818
5435
9217
3272
6458
4471
8683
6677
1730
3166
1111
6041
5952
5470
8235
2897
6335
2318
8806
6265
6485
8164
6851
3317
9463
7295
9340
2760
1922
8890
6351
6741
6382
4999
6640
5870
9773
1124
5180
8862
2219
5468
3795
1312
1564
3292
9294
1712
158
2764
1738
630
1866
5039
8415
4006
8902
8603
7310
2438
4311
338
6183
5790
7859
600
7040
191
5101
1709
4234
1311
690
5718
4248
878
4489
6006
5864
3086
8304
2475
3633
3410
7167
242
1619
4584
9373
8883
9296
4456
8236
5149
3324
9366
7765
3364
6790
9200
726
2360
5606
8441
4086
3665
5212
450
7773
3295
8822
1068
3889
2670
3557
2203
402
9569
3013
8048
8506
9811
8046
81
4709
4671
8611
4061
8364
3621
6129
7209
1711
9339
2294
5810
5933
1911
3000
6585
2656
8945
8034
6141
3202
3869
7889
7424
1234
3638
4165
4254
4556
9610
3063
5947
2272
6268
5015
5743
1005
8750
5631
2573
4316
3968
609
214
5702
4318
5796
8963
9277
5683
4924
1296
4734
5656
2641
6176
655
1444
1042
978
3242
4572
9541
1742
8012
1271
6442
1324
9413
9248
4211
520
2886
7206
1813
9488
1596
7426
5517
2275
5536
1631
7819
4861
8193
3155
574
5042
7195
8974
3101
923
5353
5967
2658
292
5821
1734
181
5546
6915
2528
6225
2876
3652
5105
2843
9652
2706
8207
598
9527
9801
7531
6289
9490
5465
4094
5786
6669
9015
3076
2091
7420
1394
6538
6367
761
8314
3664
5172
9335
9848
3040
3188
4226
2523
3073
2325
3487
9550
3115
7557
3037
7678
1626
7169
1253
4771
2610
8824
1930
2038
340
1716
8386
3216
1110
4203
8905
6819
8478
3273
3297
1193
3257
3540
9872
6279
4281
3509
6319
6954
3392
4788
2581
8297
6931
7818
9705
8199
7796
8487
4099
357
8926
5390
1137
9643
5410
3928
6131
5436
7903
3517
2058
4896
6653
431
6787
6105
910
3511
331
82
7618
8910
2210
5208
3120
1737
1947
2251
4859
8436
3225
8391
5243
7225
7335
5214
2224
6285
1206
8306
4683
6758
9247
5282
313
8501
9762
2188
7594
9427
7291
5632
7946
7139
2417
5699
2920
1937
4902
881
7950
9484
2544
4805
4044
12
6492
6952
4925
7518
666
7354
739
7662
2161
7595
1373
4299
1244
9005
435
3450
8480
1915
9797
725
2258
3874
4723
1664
1221
3480
8776
2551
49
9186
4772
7677
912
2430
7967
5116
2062
856
1115
9121
2550
8709
595
6916
2478
5370
120
9020
7705
7257
8350
5260
3211
1252
7501
8549
9785
2128
8725
7263
3224
9861
9055
7963
9350
5813
3925
4274
4663
4490
6841
2460
1961
1718
1363
8721
9889
7964
3693
5017
1590
9503
6154
5749
3160
3687
6721
8648
2474
1500
4598
2578
6417
2919
9779
2215
9039
9320
9926
7758
7177
6120
905
92
7856
9587
9010
9659
9962
9900
4493
907
250
8323
9709
6360
3014
4104
1299
3626
1795
2004
715
477
1771
5770
3067
5990
5372
960
1286
7414
6884
9337
894
6996
5554
7313
6092
9213
6943
8691
5205
6540
8035
198
7754
4802
2431
8819
1277
5538
7736
4025
3369
7583
4812
4049
6613
186
4154
2484
7048
4828
7502
282
3719
8332
4498
2132
6435
3197
3680
7509
565
8729
32
6425
5915
4304
7669
2104
6575
641
2160
3159
3562
2106
1874
8563
9682
8687
9310
7032
2371
8394
8284
8877
2990
7204
7810
9398
8407
5727
7419
4307
8490
2809
2303
1092
3255
413
9712
4390
7033
6127
5575
5259
7458
590
1505
2264
6503
8514
5358
7975
6215
663
6729
3838
6953
3831
2762
3102
5450
8715
2591
220
3352
6455
7875
7553
9605
8714
1686
4050
1940
5404
4717
1948
3642
2740
7665
887
4530
2099
7906
9240
2893
4212
9009
7306
4929
6470
5842
4558
4264
4080
7349
15
4855
8260
7633
9929
4405
2336
4967
7923
4486
5533
9137
5862
4016
9564
7556
3378
3975
5905
6236
8831
7417
2771
890
3689
67
1067
4872
4139
8340
1088
6861
3184
4121
5395
2505
4600
812
5944
199
6437
6194
6626
3728
3249
8303
1032
8028
5009
744
5476
628
5107
2654
4659
5189
6833
8088
3711
6776
4615
1939
3074
3193
3877
6556
6542
6026
5008
4427
4695
4210
7228
2880
6655
7070
5336
8039
9899
3386
5803
355
6894
219
3909
1146
1391
5834
1654
971
6250
1352
750
3941
1410
6811
5453
2819
1192
9947
6620
1533
8680
87
2064
7574
2321
9459
1283
6399
8568
8426
1072
5649
709
1096
8089
6599
1021
2545
6681
8666
3534
5136
7199
5442
3721
8049
5914
9410
2522
6286
4350
9206
3309
1551
3518
7621
7800
9500
7393
1276
8581
4342
6980
7844
7325
3140
570
5811
5737
2415
2311
9104
1104
8766
8653
1508
9646
5221
1844
9210
3029
3305
3219
7683
8278
6473
7304
9944
3281
4633
1904
762
4510
6188
1991
3936
6210
5135
640
4382
2283
136
3041
1197
1342
4907
297
1408
4333
9703
112
8919
5943
6151
2399
723
4415
8004
6329
4874
4019
8502
80
5518
2786
5899
1149
5090
204
6880
2847
8321
1593
8481
2496
3021
3412
9967
4835
8157
1836
831
6394
691
152
2917
9512
7387
2561
1301
1831
3203
2471
7803
429
1128
4983
3995
1482
2729
2635
4242
8067
5479
8342
6093
1346
1977
8219
6977
8176
4847
7118
5812
1717
6708
90
924
6343
9667
9148
7292
5983
1936
2807
5110
8090
1607
6091
2651
3180
3473
8339
7347
9888
696
4289
753
5467
6114
859
6859
8128
4928
3419
7793
5406
6126
290
5521
3722
872
7123
5346
7300
6271
8966
3703
9107
1051
1688
7156
5129
3488
1586
4258
3365
7511
4933
5542
6060
6800
8495
4249
6757
1191
7559
1247
2697
2130
2686
1267
7748
2821
2056
844
8731
7
3569
9158
3128
5822
7671
2433
9191
425
193
1714
7389
2458
8956
8708
2549
8802
6247
583
5040
8924
8227
990
485
8959
8734
2981
2183
3405
3379
7094
4428
1378
2918
3291
2259
7714
7942
4138
5048
4404
8027
3231
1058
534
7090
4208
10000
4773
6576
2719
5611
4528
5867
5686
6167
6795
5046
3501
9309
6578
33
3736
8325
6095
7795
5764
3910
1054
2611
9905
8374
2513
9317
7769
1412
9790
5986
9532
424
8431
3502
6125
2446
11
2216
8158
1661
2155
8348
4411
8528
8440
7613
8359
6468
2744
8096
3012
7789
9094
7546
4901
8132
9901
9594
3828
4213
6142
9597
5190
9008
8554
8586
4813
8159
207
2189
3201
7866
9480
3408
2467
9486
4214
8841
4487
1347
551
4244
1015
426
227
4144
7046
4787
9445
7701
1218
2923
7597
9937
7152
3881
5767
9871
7144
571
7104
9037
851
6148
9782
5819
6393
8781
2398
1439
1362
3031
9686
3234
4303
9555
294
6501
7282
9538
9796
967
9562
9890
6511
7642
521
4702
4344
564
8324
5393
6921
2971
9246
7368
1669
6024
345
1163
6380
7641
7899
3121
4114
9665
9382
7922
8286
2661
7849
3359
2721
8308
4142
6057
2055
3148
5125
825
8111
6605
7042
8343
6822
7214
3435
8970
2304
7140
1170
5384
4823
3503
1604
886
3459
7482
7984
7365
4767
7900
3043
1443
2141
3784
3
383
8524
7185
1338
7235
9093
9319
7804
7685
8453
9620
6901
4018
7388
6934
1022
3614
6852
4217
1368
4775
1667
6402
529
8629
411
9013
8624
2623
2510
7063
8231
4330
8741
2518
110
8050
1761
2797
421
9945
1776
9606
1882
8146
9502
7735
5839
1950
3854
4161
7494
2922
9231
1896
4149
1498
9570
3734
3737
4504
365
3441
577
2057
8265
8640
4202
5312
3097
4594
5837
2820
3808
4839
2391
3284
8953
2938
3458
9241
699
3505
5949
8330
4356
2369
5092
5290
3174
1649
180
269
5763
7056
4947
399
6264
1879
7932
342
1580
350
6083
8722
6945
6242
258
5062
6353
7052
8214
9496
9478
3077
5499
3767
2563
4941
6914
7205
6385
1270
6408
2373
7688
6650
5100
6106
6431
4721
7192
5881
3552
3907
1550
6490
714
4662
8483
9495
7036
2021
1230
1095
2844
4247
5541
9001
487
2401
6156
916
3385
7324
7297
6532
1136
2932
4989
7717
9600
3822
5482
9866
4373
1353
5636
8334
2495
4793
8211
1779
5227
3622
5633
6174
8053
1512
7207
9031
4563
2992
5083
5261
155
9673
2949
233
3982
7860
4961
1010
2186
2853
3261
1200
2968
1616
6044
3744
926
2896
3269
1091
1721
9073
2320
3468
2045
4884
2489
9804
4660
5024
2228
4836
4885
8613
1884
8511
5388
9939
1693
405
6281
5396
6469
8534
7728
9204
2053
5594
5757
2667
6169
1098
5778
2995
2647
2673
3052
5434
3289
5836
3695
3593
4361
9574
8077
7682
9331
3129
7588
5609
298
5961
9156
9362
898
4624
9649
4066
798
2954
1530
4392
37
1739
1826
8307
8388
7568
1370
141
5050
5044
3873
7579
7239
4673
1941
482
9864
9289
1055
567
3046
852
1573
4100
6631
6548
157
3199
4039
4173
4322
8144
4523
8091
4764
724
8250
1568
6309
3970
5318
9110
9946
7439
8995
3902
2839
6181
783
2035
4193
2988
2946
9690
5029
3141
1816
5851
8384
4106
944
4
3500
5437
3294
9788
9571
5031
9842
3691
5126
7047
9047
951
4010
2469
4501
5011
3858
7755
6689
5773
9295
1860
2790
8749
6624
8381
1475
9769
2752
5308
9957
9429
7697
6218
2049
5980
9183
943
9144
764
5352
977
6020
4542
2852
9627
4995
3250
2427
4544
4977
7740
4496
1552
3956
4561
6163
2980
4720
1488
1577
7320
3168
1084
7220
933
6978
195
7031
8682
18
4707
2829
7520
7061
2741
9658
2776
3623
7215
8163
8434
3759
6875
4878
7060
5516
1803
7976
633
4416
5534
5783
210
5209
9238
3863
1509
5612
4343
3477
2143
3794
5579
4830
2326
6433
4410
6075
500
3577
7878
2461
791
7196
2902
7135
9122
4171
9974
8732
5324
2735
5589
8579
8700
1602
1676
946
6873
7764
5917
1341
3290
2798
6937
9234
2552
4124
4863
4286
9566
2589
154
5
7854
296
7057
2448
9440
9371
7259
3009
2144
4840
1523
9704
9312
7977
759
2052
409
8847
7573
4358
9011
9085
30
7071
3271
3590
4853
1956
4658
3388
3603
2405
2682
4058
7050
5359
1478
9674
1050
1262
7858
6261
6223
2767
1881
2950
4574
9506
5315
4337
240
9778
7927
6577
6747
5676
3047
1924
3463
8589
8886
2588
8084
1220
8543
4440
4384
8237
7902
1382
4748
9285
2835
2112
713
2845
1293
637
4431
5293
163
9724
7180
7068
7353
7746
8491
5506
283
7490
8571
1519
7788
9613
6097
2074
5953
6023
4015
2810
1246
3591
3508
3516
161
5937
1419
9868
4442
7474
259
3574
3715
9388
8643
2016
5060
947
7895
737
6615
2910
1695
3183
2781
3835
4585
8405
7820
8950
9757
4189
6806
3366
7505
3906
4458
7766
3958
3404
8005
9529
6324
845
3098
3725
6317
315
8759
6515
6370
8837
5299
652
4649
8069
439
8059
9374
4174
8032
3066
4158
2994
3656
2014
4417
7480
6816
3163
5176
8317
6424
2883
9953
9586
9424
1077
7838
2972
5815
5501
3387
2770
7461
1549
5592
6452
2020
4005
7268
4239
2298
9572
8973
109
530
75
7170
5306
1165
7953
6504
1998
9717
9201
4931
8259
813
9906
7727
5551
1190
9220
1581
1514
5893
5511
5258
1487
6436
386
6252
1684
9660
5685
4765
5946
6145
8773
1248
7644
7871
9261
6638
3048
9911
8865
9831
5232
8026
984
1672
5133
8987
525
4365
6258
7323
5033
4468
4188
7358
767
7082
506
270
1132
9253
9127
4235
8552
6545
3545
2855
7183
1850
7037
289
9522
9438
3147
5639
8840
3344
3792
5296
7891
1588
5876
1558
7410
9356
8582
5969
5740
5000
4207
5432
4339
2050
6047
6007
2534
6085
5252
1319
810
5168
1364
1322
1332
6726
9061
7806
7987
2464
8301
5072
8686
8362
118
2290
6707
712
3342
1960
7931
2445
7484
2748
2524
9745
6079
8150
2136
2084
8001
7523
6872
4620
4555
7385
4075
5931
1415
6555
2608
3712
4918
8047
5075
9784
9517
757
142
9677
9163
4096
3515
7835
7990
8870
1703
1655
4107
1365
94
6788
3983
5487
9753
6301
7362
284
793
3852
8845
2881
7307
4852
758
3730
6086
1140
9860
406
2863
7153
5350
7314
9714
7880
9693
9579
3985
5115
9256
6950
8689
2678
6201
4898
2087
1544
2169
2723
2269
7456
3980
9222
8139
8357
5486
45
4141
7985
3812
7216
2332
9022
8516
8684
5022
7994
4502
7779
4799
6860
6989
597
8834
7767
1275
3944
3931
1463
2328
5789
7971
6665
7470
4954
7506
8079
8863
8751
7099
3597
9116
3526
8701
966
6270
3474
5850
7826
6182
2375
2720
6165
6720
9993
5892
436
2316
6231
2262
7916
9499
3698
9106
8537
4072
5167
9983
8894
1541
2983
6372
4710
1829
2567
6588
2177
8242
8907
5439
248
7234
9561
8168
4955
4652
1918
5974
4834
7003
720
5902
605
1350
9689
9972
7236
2305
8607
6015
7750
1618
3243
2420
765
1201
462
4914
4150
1485
8464
1076
2542
8790
3648
9856
8520
377
3660
4603
6886
9223
882
4135
6523
6209
508
9432
1143
8179
1420
7989
447
1522
6984
9989
2593
3617
8476
486
8983
6032
7350
8570
7279
6636
2307
8553
7483
4838
4302
4785
552
9863
675
367
3706
4991
3263
3527
8875
4102
6274
2029
1080
533
5853
3976
5304
7025
4088
9236
6815
9143
6518
6300
7440
8074
8256
9599
7640
507
2223
1263
1442
7322
442
6460
625
6700
4519
5037
4122
2248
3685
6868
7013
8660
5708
1768
7997
2701
4986
3107
4575
9567
4387
9492
4272
4589
7988
4054
2230
9283
5963
8637
1647
86
1559
3113
3069
7802
5185
7530
4003
8621
4125
9275
8814
5341
8367
6328
7429
4230
1699
9270
4938
7184
2768
7273
7739
4937
1670
5132
7337
3329
8551
185
1371
6457
3757
5805
5036
8107
7425
6530
962
3568
7080
2187
1492
2142
9451
9918
7775
8538
3417
3899
8678
8365
125
7982
4837
3546
9182
8743
8444
9702
3800
6789
9057
8757
1808
2454
934
201
2669
6113
7600
9430
8488
3541
1217
9910
4357
3692
9614
3967
6612
7397
5280
3900
8410
4236
2482
8180
3191
3820
3758
9252
2927
1045
568
6716
741
7238
9138
9070
9329
4300
8816
4627
7687
3020
5890
5628
1057
8108
3106
8955
4153
4297
8085
2937
7815
5491
5279
8788
4730
7427
3585
4460
9730
5307
2356
3105
2584
4795
7466
9151
5877
5742
3375
4282
9178
8184
6514
2254
7309
763
3125
1890
7741
9575
8331
4000
1099
4713
4676
2864
6723
3030
2689
271
375
9688
6830
5765
7904
861
8459
1663
9530
658
4903
9458
2295
1175
9744
277
2900
7270
4581
7918
7311
1145
4987
7503
8399
9828
3650
4240
1638
8275
1630
8669
4009
9066
2037
6022
3444
2246
7822
1470
6414
1435
7433
5246
901
7604
5751
7637
2397
8583
4554
9128
8160
9884
4073
2333
5539
7203
9473
6461
2672
1585
104
601
8288
1134
1426
866
8044
1516
2772
4774
7504
2643
7447
1502
3156
8509
7534
4647
5719
498
3483
8795
7708
2676
5576
8854
2349
9305
6592
8517
980
9723
5289
8008
6196
1358
3455
6189
4293
5231
7266
5848
6797
8302
2463
5828
1292
4923
7617
3339
3252
6152
805
230
3892
6363
5532
2652
4934
9589
3741
3611
9763
176
2082
9225
787
8018
2825
5204
147
6991
8494
2888
1993
3472
9129
700
3220
7211
6352
3582
2067
8241
2428
8375
7326
2255
797
390
7725
8337
745
6930
4432
7840
2126
5433
3937
7316
661
9367
2559
5616
8003
7956
1598
2691
1139
1978
9679
5559
4335
2791
5026
7713
5872
62
6697
1023
6441
4116
2592
7973
344
1691
4031
4338
8248
7624
3905
7364
2345
3094
4816
3015
2834
5758
3969
4508
3498
4481
8801
6059
7399
5242
1894
8825
616
8080
9192
6533
5413
2868
2727
2867
8605
1086
4089
9194
2629
382
2205
9397
4670
6051
2694
7361
1349
6704
361
2194
9992
3867
5586
7780
5389
9656
2579
8098
7230
8901
3394
9049
795
7065
1746
6294
76
4452
6849
1046
1838
7245
2514
95
6867
9531
8103
7120
2554
8066
5354
1006
3601
3643
8792
9375
5625
23
5154
9625
4891
2154
6495
8402
6541
1395
915
2895
2218
272
7481
566
3933
5900
9119
2348
1888
1392
2803
6854
3850
1963
1048
231
9528
6526
8815
205
804
2507
1029
2725
1872
2914
8982
7000
6498
4531
6603
5549
9274
2000
1393
1355
8216
6315
1810
7254
4540
3374
3984
8166
5922
5447
9115
6583
1785
540
3856
2081
9852
3565
7106
1473
9840
5760
9434
6607
6537
9559
5833
7412
2703
826
7873
327
6679
6745
6507
5655
99
4570
9590
4180
7744
4389
5303
4867
4651
3447
5571
2231
39
7081
8470
1633
4962
9439
7526
9301
6036
5215
7463
66
3413
6920
9700
8857
7834
9987
2565
6251
1536
8869
9819
9975
7457
9505
370
1893
560
8202
8153
4766
1074
1830
6117
4181
5587
6480
6911
2182
5729
7411
9639
6778
5452
7938
1981
3851
3864
6956
2705
1159
3740
2525
8282
9265
7146
9124
5622
1109
3341
2738
3765
7334
8040
7398
6234
1454
3955
4386
9991
8636
8429
2118
4020
2024
573
1279
5112
4270
9249
29
5950
7937
4218
3819
6727
8137
1657
7421
9074
5865
6438
6728
2324
7278
537
5916
445
9509
5898
2757
7178
4729
1903
683
2380
3699
6070
6124
6821
9759
5970
4625
7422
335
7955
7302
8891
3753
9858
5704
273
8328
5666
7521
6785
150
4295
3805
4204
9000
6667
9025
7224
3484
8710
5775
2612
5339
9396
3415
4970
9245
2403
8664
5661
7200
6566
1035
9908
2011
9364
5233
7012
4661
9381
862
2999
8859
6491
9363
9108
7898
2350
4001
3952
4868
5266
8633
2039
1614
5885
303
1499
7659
8380
8836
6609
7367
4822
1736
3669
5054
9956
8846
362
1467
7342
1083
2887
3755
1964
3702
6647
2451
7213
7034
6783
8064
9552
1384
463
8178
2614
4146
6158
2986
5225
8615
3823
4130
5859
1825
1019
870
9691
7565
2753
6967
7865
8290
8574
8327
2166
4517
8370
7226
5846
2965
5838
6976
3497
800
5056
4578
8072
9232
5552
8724
5051
4820
9680
9419
6828
7540
5673
2690
9836
2648
9352
4345
5593
4265
779
5797
171
592
13
3566
5028
2939
183
5973
1008
1920
7529
6401
4956
6809
6794
6979
4889
5333
5337
4518
778
8976
9271
9638
2908
1208
7589
2121
1242
2032
2631
316
9043
2811
9291
4321
8309
117
6703
7821
9260
9719
2370
5146
1413
3373
1865
3226
3495
2115
8864
1875
746
6820
2562
6772
378
9456
5503
7158
51
2140
3965
1264
5564
1126
4123
654
9741
5448
9405
8673
7700
8243
3592
3343
6066
1184
3836
9330
8745
3651
1400
1756
3598
3738
253
6448
3849
7299
5198
5255
6115
6136
5651
8006
2860
7443
16
5480
7009
8133
490
5657
9072
6905
4209
6364
2402
7831
7738
6313
8119
2358
5429
69
8930
1710
7247
4105
9471
8196
2041
6415
5738
1406
1883
122
8247
6760
3743
8280
38
2684
5723
8650
1064
4674
25
822
1828
5074
4472
5807
5076
6948
1996
2962
7616
2985
3114
6221
6705
4364
2329
3301
3774
1041
2293
5989
956
7696
9912
9426
604
3605
9632
5420
1236
337
4310
2355
3489
172
873
7444
8780
2493
9159
7619
3855
6744
3594
9077
5139
7109
7944
4081
2659
4541
2975
8593
3724
4636
2162
9718
211
1323
7086
5177
3939
4053
2191
3071
5991
8169
8639
1182
6701
3246
4008
106
1569
3573
2002
1417
5817
4829
8767
5239
8789
4958
5982
5206
7370
5220
1489
1335
3544
5340
448
3411
1160
301
5334
6465
1300
5472
9699
6812
6792
8918
4035
9369
6582
5875
3637
8475
7673
4285
4681
3525
1233
914
2213
594
8360
2708
4858
4385
9466
7352
5921
9157
731
7609
7072
2569
3821
5653
4448
481
7328
3338
1340
7925
9669
9815
3236
6559
7130
6389
6245
7978
1563
5320
4536
4827
4184
3353
123
9716
5224
9228
3914
9130
9407
1901
5140
2627
2003
1209
8210
5855
2442
8136
2109
3177
8703
5693
4334
4875
1326
4359
8545
8113
4738
9308
5690
1321
3023
9722
8497
6170
1859
6949
465
4580
8124
4731
3894
4727
1845
1219
827
6299
3690
3733
4750
4849
2916
8742
5782
3311
945
5584
5752
2315
542
8127
6005
3279
363
9855
2421
8893
2858
398
670
9952
8871
7149
1820
4064
5348
7928
9377
4566
4047
599
5006
8438
5678
8010
3988
3108
8346
8769
7053
2409
236
5253
1093
7538
3871
3082
7787
9136
6892
8872
4225
2840
669
3746
1228
8949
7584
3845
8498
8775
2450
9635
5754
562
2023
9878
416
9357
2312
8688
2462
6775
9558
6110
513
5319
1525
3103
97
3599
8521
1361
1456
1789
8482
393
1697
4831
4051
2713
3054
71
4074
9966
5787
3256
2338
5968
7881
7384
9336
319
8591
6673
8135
991
3003
9998
7147
4817
1980
8942
2830
3785
5010
8078
5412
8917
4156
6238
3280
3389
1967
164
9078
5489
3377
4463
6520
6428
9651
3714
1282
1782
4913
4119
9882
5463
6751
4506
680
6058
556
2620
9576
5726
9359
2352
4854
2516
5268
1741
7864
2859
4604
460
9087
8783
4397
4559
7586
3847
7890
1702
1665
6483
2153
3002
2098
3382
9142
4376
2726
77
8592
5485
6630
2693
7007
7105
7378
7991
9421
7145
6267
9775
1377
9304
6770
7476
5669
2802
7126
7799
5357
9457
6549
6958
900
3314
3918
7150
8276
4269
643
1448
8542
2861
1434
93
8093
5595
5002
776
8422
8296
5492
4747
455
4768
4408
2384
2848
8283
4845
4565
1975
317
5645
849
9395
9948
441
9346
5717
8779
9372
1162
2955
8562
9279
4944
3804
3233
5459
9338
5271
4513
6462
173
6900
5523
1411
5141
9300
858
2229
1044
6323
1194
3735
5555
1783
754
6266
2198
929
1945
2211
2838
4201
7406
6602
3810
2899
5275
8606
2453
4979
9764
2278
3228
1858
1158
5457
2243
4136
8081
4346
5598
5793
2991
2367
3136
1556
3779
4461
36
5985
478
7634
3991
9853
9626
9655
503
8424
3018
2831
6029
4348
5338
5976
992
629
5682
8109
1069
356
7386
2846
4996
9193
1085
6998
6479
6522
1952
4470
8326
6623
395
3448
9442
6290
5879
3996
9216
410
8539
5847
4091
6096
1658
5329
7827
6951
5641
4851
1007
695
8181
1617
2452
3212
940
3957
4718
505
7438
2070
8055
2633
5818
2736
28
6844
4128
8997
3832
224
3312
2851
1704
9789
9710
364
5860
5623
9125
7670
2577
6038
5975
34
7719
2252
7305
4464
5069
9303
7454
7395
6928
287
7638
5355
693
8578
511
4473
1461
2681
1506
1606
229
7979
4069
1708
5695
6528
8201
396
6755
4712
4697
4424
7512
7445
3282
5153
3215
5736
4892
8915
4850
2836
2826
1097
351
1211
9568
2065
2775
7141
7704
9179
9164
6040
8566
4692
2238
2926
7189
2582
6346
5992
8198
7734
1151
1198
2759
7699
6611
998
2076
7508
2071
9504
7174
5731
9400
2297
4535
4459
5267
7249
8975
771
4810
7409
2176
1601
1212
2599
464
5569
4371
4315
4480
2441
9672
1799
9733
2526
2197
3149
8194
4347
1971
4706
7022
1075
5047
6536
6644
9982
1727
8471
2335
8252
4041
5825
1877
1436
9687
9542
7544
6959
6666
8195
5739
8232
9452
1366
6674
1804
4435
8065
7194
4237
5369
5385
6927
5417
6717
7733
9924
169
7743
1997
22
2638
5174
1637
7551
4614
8014
4253
3200
1957
837
6395
3616
2600
8608
6846
1383
2437
8383
5430
8969
6160
2700
4092
9921
8693
950
8122
7749
8573
938
4062
2709
2034
4985
4484
7067
7784
9846
5906
5979
5063
8941
3170
8503
2958
8273
5930
3209
6924
2541
3443
3553
5629
6056
85
8906
9795
7459
3912
7077
3049
7489
8293
1562
4406
8029
4887
7197
6966
8853
6187
8698
7341
4760
4451
3917
7102
2906
855
5888
7172
4170
4445
6371
7785
1375
5096
2977
5886
8952
3011
7137
1806
4616
6087
107
4694
2564
895
6808
6827
5599
4465
1304
8867
3915
3328
4402
2813
649
5716
1833
9581
1147
877
4109
2732
151
5379
8057
4960
2758
4951
7442
5524
7782
1765
6253
4932
9832
1251
7079
8170
3731
5199
4904
1325
8305
1250
6712
9403
4758
9557
5159
6088
2270
4381
4227
6971
443
2245
5238
5928
4921
3667
299
9751
7592
2006
8911
4533
5415
494
9494
8086
9767
5999
3396
5327
7396
4579
6906
7248
7286
8204
1863
4705
5121
1852
8189
1668
1743
2560
3361
9404
281
6521
3194
2334
7578
8944
9202
5391
6838
3997
623
5411
3400
483
9449
9752
9299
3940
8226
9103
2353
4291
4112
2755
6814
9585
3427
251
6027
2193
4011
620
8696
7524
9102
1374
3966
3563
9994
3061
9891
9259
2122
9623
7165
8457
5451
2156
1455
611
179
6101
3245
8154
4935
2728
2763
2964
730
7874
9736
3921
1986
6509
9607
8850
6835
3998
124
6122
336
7233
1720
3422
4939
2605
6355
5043
6013
8590
2714
9869
2745
6426
9721
3154
8993
9933
1982
9793
3718
8874
3057
8884
5013
9774
707
6902
4873
472
8489
4741
4682
8535
8423
8151
5904
4998
9218
875
8299
6487
2412
7242
3705
1122
1972
5416
785
2361
3920
9874
9146
4436
3861
5027
8939
245
9816
2795
4482
7888
2696
7870
2598
3490
5747
5285
2079
4980
8450
6179
3606
3064
332
8833
8070
3350
2214
2774
8937
6550
6133
6012
4609
6304
3467
3953
4552
6837
5882
8390
1100
6246
5852
8062
5577
4591
175
2217
3058
1003
1462
7201
2204
2660
8992
4739
7757
5550
190
4251
3452
9851
8658
1878
3313
5376
2434
453
9914
27
7910
7467
8979
9412
1020
578
5297
2769
8654
9547
8269
6445
8400
9184
9176
8025
3950
197
5590
5713
4610
7691
4946
4206
6278
1760
4323
6244
1000
2512
9161
7138
5615
3428
5513
6547
8249
394
4888
1405
6923
5780
1600
6206
9553
555
1144
608
2374
3205
4354
953
5147
9092
9578
5462
3943
6474
4936
3134
7566
6447
2381
7416
4879
4409
7809
1574
2622
203
9006
3934
2671
7940
9633
2247
5070
1254
9169
7575
575
8016
4446
2244
9588
9023
4052
2653
5461
1061
295
3124
5955
7661
6675
5286
493
3100
3666
2749
4638
3619
2413
8572
3395
9026
6544
2447
760
3865
4331
7010
3451
4037
4809
5264
5497
5240
7431
6877
2873
2636
8442
1278
5144
3604
349
1360
1018
3322
8011
853
3674
3213
407
2414
6899
3440
5654
3659
2521
9354
6413
3445
3510
9155
2319
7711
2639
2250
8349
5993
9766
5188
3596
6706
222
8547
2808
2158
6517
2025
1848
8427
4881
8868
5317
8161
5766
5903
1344
244
2823
9839
1592
2857
3232
4920
1857
9554
3888
547
7253
6925
2114
2692
7737
968
3833
8463
1722
8398
9825
1932
3671
9737
8523
3485
7455
1905
4403
1962
4607
1510
5330
466
5721
3357
1690
48
3157
6765
1754
6840
8728
1582
188
8403
4368
6043
789
4232
202
7545
4319
2815
5665
3841
5827
4078
1102
7657
2497
417
9079
7055
4605
9671
2165
8019
3707
6099
8598
8253
8104
5744
1731
8565
4261
4093
8706
7817
2921
4103
2363
9776
8530
8251
1931
3732
3535
1538
8737
6639
1834
8933
6345
6502
2075
8580
3325
8821
6961
4457
3716
329
9535
3581
5152
2500
3087
8351
8254
1517
585
5672
9521
9591
9140
1334
5529
1161
311
1423
5988
6968
6627
7981
8529
238
8099
2174
7401
3393
7110
159
5251
838
5863
6604
8477
4190
828
2718
5935
3771
1757
360
1914
2699
1174
7117
8121
8300
7318
389
8130
3567
5170
8392
5371
8748
2090
7001
2457
8221
7173
358
3677
5455
5082
2828
4129
2410
9518
2221
1992
8830
8609
7084
1864
8358
613
8807
5256
7720
2083
2540
6288
226
8610
6735
7475
6392
5446
7092
9758
9341
6749
7379
6527
972
105
9269
5701
3310
6719
6662
2787
3370
6807
3627
5675
8597
6737
98
2080
8054
7058
2909
5295
8813
475
7356
5505
5709
6818
9226
5634
3171
9707
2331
909
1873
4597
9650
3038
5365
4908
9476
9262
2342
8855
3571
790
9211
5560
8094
1645
1677
5507
8083
9080
4754
6739
9935
1537
1232
6663
3879
676
3710
6177
6259
4755
8954
7587
9443
3770
6121
8452
554
8510
418
5830
1910
3007
9821
5474
6865
3825
57
9418
128
1231
9292
3088
6379
9746
3349
9664
8980
1188
7171
2535
5387
2425
879
148
5843
1621
1268
8625
1955
2426
2898
9203
1116
1680
994
9808
9749
8009
423
9409
4804
7404
6429
132
1966
9288
6876
932
7783
7115
5272
2253
2683
4306
403
4241
1578
3890
7853
817
440
1351
9422
6031
5093
3093
2163
1336
5887
7945
1926
19
3323
2989
5277
5163
931
3778
7970
4716
8173
7645
5600
4246
5856
9076
4583
4876
116
6831
3206
4131
6227
6287
9454
1258
8754
1938
5194
5697
860
7449
5801
7591
1167
662
6882
9149
1432
9524
4500
8800
9628
1513
6529
6919
8832
6981
5456
3684
4195
4252
6175
437
6853
7492
3790
7380
7920
5488
5099
5408
8726
6897
1934
7913
3075
8007
7289
308
3334
3729
9326
6810
4824
9469
7301
7124
1229
4351
2602
8215
6753
8097
9075
359
937
8634
2628
6767
9510
6694
4216
9961
9139
3267
1951
7218
343
5759
1753
7374
9255
3791
6560
9950
9041
5383
5196
2773
4953
3032
7528
7580
5077
8225
6116
3414
168
3532
7027
420
8557
3625
2444
373
7462
6685
326
5777
4751
2291
6050
2987
6941
2626
8630
473
6763
1333
9999
6109
9919
7290
4266
5071
2416
6295
8446
4553
6864
6896
9951
1713
7024
7949
2630
8134
1354
9750
3461
4185
7114
9014
7730
2392
3045
3403
6033
6321
1818
9048
6621
8921
2782
9596
5619
1973
5344
3072
4952
7722
8460
276
5806
4846
4699
5814
7759
2590
6334
8720
1591
9175
2366
698
4085
8223
5001
5403
5061
7707
5504
936
4690
635
9601
3761
9365
4762
5084
4400
7377
2102
491
6406
4467
621
4313
6586
5794
5966
7611
9577
8665
6910
8768
1524
5958
7288
1700
3096
6718
7432
7893
5748
3053
3178
2423
8852
7715
1622
9720
4532
7308
8818
9207
9903
9887
7770
6975
3258
1919
4283
2362
4743
2889
9290
1560
1612
162
3005
1106
7369
8245
5692
581
4007
8209
4514
1469
1886
1752
7794
3868
8617
4571
1671
3001
2739
3247
8661
7814
6939
6617
5820
9370
4737
7622
9287
3181
9879
5445
8838
6310
2181
6702
7274
4538
3543
6130
6879
2817
2354
4966
6746
8809
8411
9844
8798
7539
9525
7614
970
243
2468
4067
9501
7954
89
8960
997
6869
6908
9068
7968
2359
5732
4147
8774
5016
5556
6512
8702
3008
7351
1480
6580
8000
6333
9401
3701
7549
6885
5840
2571
5998
7626
3016
2717
3026
8385
1040
1579
4462
6782
9543
4466
2806
5150
3161
1119
2587
3217
6111
8316
8646
1490
1908
3588
8828
7646
1565
2616
6184
9756
2265
3083
6168
309
3959
2508
6128
4922
5522
9838
1897
1507
7190
8946
4899
1372
9257
4090
7121
6598
6754
1379
8784
444
3809
738
9739
4806
5668
7877
137
7525
3207
9097
6682
888
4002
5323
9187
2511
657
7345
5800
3935
6887
4569
3287
5166
6622
7229
1985
4267
8031
7469
6845
6691
2788
2124
4776
3751
1853
5929
6407
9681
5157
4746
9391
5284
9431
2956
2517
5951
9384
8996
8823
3533
1464
6759
7861
9653
8616
9230
5671
9185
4801
1390
6021
8676
9850
6637
1416
6836
3697
3123
3268
428
2266
7088
1832
9168
2436
5161
9266
1113
1466
4084
8141
2494
9803
8270
8758
2878
5525
480
3372
5784
3620
2292
3631
255
854
9406
9513
1880
9229
7338
9491
840
7998
9
9162
3539
5798
9755
2766
5714
6440
4340
2146
7423
4906
7643
3327
7550
4753
9441
9302
7129
976
6430
4429
7015
9483
8936
4557
5345
2879
5728
8858
7561
323
4163
4038
6963
1819
9251
5134
8162
7244
6784
4175
9949
5841
3522
3376
5193
2138
5342
5182
7260
7664
9322
2101
2915
7477
1571
7547
6938
9311
751
9411
3437
5292
6451
5776
1203
7039
7243
2157
8418
2519
1265
3632
7919
2313
194
5515
4278
166
6262
3926
3062
8433
3556
8938
1629
6008
9060
3672
2546
2948
9520
7577
2030
867
6486
6832
5528
847
3367
2640
4349
6373
5186
7911
8811
5178
2597
4568
1030
266
8285
3866
8897
6052
3844
2117
4957
5660
4407
2716
7255
70
8786
8596
3766
4245
4808
6369
6634
1640
4152
6305
2200
1965
6567
650
4024
6513
1450
8329
5397
7747
7366
5624
2645
9740
2800
8965
9028
6069
7294
5475
1726
9227
8294
4229
4070
3661
2377
8023
2487
4312
7999
3331
8632
457
1465
9038
5543
841
9885
4735
6320
7163
6524
646
9814
9250
864
9315
1675
5741
415
4909
6713
385
781
8948
9313
8336
819
6422
8787
7363
3932
288
6311
6314
341
6377
3782
3974
9083
7064
6593
2967
6155
5644
9768
5111
3475
8246
9100
5495
4815
5826
6180
896
306
7674
9298
7930
6073
4704
275
1345
7029
8711
6645
2644
5053
7960
2134
3964
969
792
1089
4034
672
2904
3924
321
7668
4492
5512
5617
7408
7936
7392
3355
1995
2404
7992
8810
8756
40
7901
6374
60
7103
1778
9212
5924
3636
4621
7962
3454
3531
702
8493
9468
850
8667
9835
2580
8143
6002
4191
1031
7258
780
9417
973
7585
4056
9692
5098
7122
5493
4668
7663
7329
8594
5454
4798
2068
7111
4910
78
2281
9221
3923
3277
7008
8175
2226
8468
2022
5640
2783
704
4543
3572
6590
9612
4546
6459
2455
8013
5585
2393
9050
1871
2959
8719
4317
919
8794
8561
6016
3185
9123
6359
7148
1240
3499
3151
5394
4169
8672
6068
7478
165
5310
65
4916
9777
9091
8584
9826
8125
328
1529
5426
586
1999
4895
348
488
5809
368
8929
6004
9423
1788
6211
9325
5228
9873
8548
42
9278
9399
114
5018
3262
6090
3548
334
7639
7491
1861
4714
55
4474
4525
1071
2125
286
9040
1154
3681
7655
5932
8931
5880
6870
221
2973
2364
6571
1856
6500
7533
1458
5142
7811
6649
8401
2145
818
7497
4378
9761
8230
830
9877
2856
6472
3829
2078
9268
2108
1707
5020
3872
3670
4550
388
3634
4494
9997
8118
3221
2005
3318
8985
9728
7028
5216
7073
170
2625
7555
3788
4115
3104
3004
1725
208
6825
5249
7839
4640
8761
1343
2069
2120
5366
2168
3657
9198
4294
7241
2172
8063
1189
5677
8856
4219
634
5696
9979
3618
3678
8820
3514
3466
1641
1968
9928
5735
4782
2013
6297
3065
333
2539
9392
9489
9281
2094
6964
1053
8413
8796
9286
446
9648
6248
6208
6883
7113
1337
6303
9016
6046
4700
2827
5030
8986
4637
9098
3649
3613
9324
6434
5398
8073
7485
4630
7845
740
6736
6890
302
5580
2872
44
4497
4126
9662
1812
2613
8505
9215
5720
816
5356
3913
5500
6205
8998
648
4596
9593
4048
7049
1298
8341
1141
2480
1666
2850
4587
8849
6769
7043
6138
7074
5103
8668
1793
708
3963
2308
7709
1620
5079
6803
4619
4551
9940
4807
1386
2685
1215
2884
6847
1441
8881
1418
9154
366
1786
996
504
3846
2456
7261
5746
6222
3789
1681
911
7277
1609
5868
8569
8451
5781
3051
1928
8425
3143
9813
906
989
3530
7562
2960
5094
2302
4450
4377
7044
4194
2615
4814
8213
6565
6616
5422
6226
5283
1388
3278
5706
4870
4491
9917
8017
8627
3786
9196
1497
7536
8116
2556
4759
111
7402
9696
518
4140
9096
7002
6076
6965
5118
5799
6235
6074
458
7026
3229
1060
2594
8311
9343
7914
7857
8208
1567
372
9062
5907
7602
2747
4524
9854
2095
9051
9971
2553
1644
7340
1039
8186
260
686
1034
4485
9461
4012
5788
7407
5269
7541
