 816
 657
 337
 262
 515
 428
 965
 118
 729
 910
  55
 789
 837
 815
  47
 637
 507
 532
 798
 494
  58
  95
 285
 556
 524
 808
  34
 413
 571
 105
 700
 679
 755
 411
 222
 264
  74
 279
 512
 537
 598
 150
 746
 109
  42
  82
 791
 982
 377
 343
 348
 312
 663
 568
 479
 209
 645
 309
  73
 353
 117
 375
 641
 398
 545
 107
 797
 823
 852
 351
 582
 306
 680
 198
 745
 706
 774
 250
 137
  27
 435
 172
  46
 106
 188
 714
 913
 750
  53
 194
 422
 875
 806
 148
 870
 557
 371
 558
 166
 291
 255
 426
 135
 336
 205
 916
 226
 456
  76
 840
 948
 276
 253
 140
 602
 783
 153
  33
 389
 609
 702
 958
 133
  56
 463
 822
 409
 182
 245
 942
 295
 647
 740
 417
 563
 561
 382
 271
 195
 462
 100
 590
   8
 941
 275
 315
 788
 452
 658
 342
 300
 114
 655
 344
 727
 181
 156
 751
 642
  79
  41
 294
 769
 821
 952
 541
 937
 977
 495
 355
 826
 414
 211
 486
 248
 170
 489
 861
 434
 345
 696
 491
 496
 514
 674
 322
 184
 931
 778
 299
 179
 286
 365
 688
 685
 402
 259
 350
 620
 615
 846
 989
 128
 438
 316
  25
 854
 396
 914
 614
 529
 376
 777
 612
 552
   2
  28
 752
 126
 718
 595
 936
 827
 379
 436
 667
  31
 809
 362
 468
 149
 659
  66
   4
 368
 298
 677
 705
 951
 313
 520
 956
 287
 247
  32
 781
 297
  26
 475
 553
 725
 899
  71
 873
 779
 324
 500
 858
 510
 543
 863
 762
 849
 967
 588
 437
 527
 326
 171
 339
 161
 792
 405
 144
 246
 623
 689
 990
 653
  19
 349
 971
 912
 200
 155
 619
 328
 573
 996
 704
 713
 186
 738
 513
 457
 733
 627
  78
 254
 244
 174
 664
 905
 742
 289
 939
 555
 708
  57
 661
 665
 649
 841
 168
 147
 508
 949
 626
 753
 334
 995
 357
 280
 760
 125
 266
 871
 585
 535
  88
 604
 807
 926
 842
 427
 232
 763
 617
 835
 278
 228
 749
 737
 851
  89
 305
 887
 790
 314
  91
 429
 431
 159
 903
 234
 145
 691
 116
  39
 600
  83
 878
 217
 442
 404
 560
 101
 151
 453
 304
 832
 801
 722
 572
 483
 216
 707
 666
 747
  87
 139
 660
 975
 283
 569
 419
 540
 189
 399
 866
  15
 683
 146
 639
 624
 220
 739
  20
  51
  29
  81
 764
 964
 586
 638
 525
 780
 354
 235
 123
 421
 111
 892
 311
 918
 373
 208
 451
 829
 605
 865
 320
 445
 258
 288
 962
 785
 325
 134
 879
  92
 157
 290
  80
 867
 360
  67
 834
 408
 589
 591
 968
 265
  10
 530
 757
 883
 136
 651
 113
 229
 448
  49
 731
   6
 979
 981
 648
  11
  84
 492
 678
 284
 329
 928
 321
 719
 578
 795
 488
 214
 868
 772
 885
 940
 824
 443
 213
 549
 907
 759
 819
 317
 257
 844
  86
 843
 130
 853
 346
 550
 193
 547
 800
 372
 881
 192
 267
 947
 802
 817
 158
 270
 207
 484
 717
  36
 183
 559
 364
 341
 564
 994
 662
  14
 599
 955
 959
 154
 944
 998
 954
 162
 531
 908
 920
 469
 361
 466
 876
 397
 239
 566
  99
 734
 273
 607
 796
  23
 703
 692
 210
  40
 629
 671
 459
 127
 374
 632
 574
 732
 319
 498
  59
   5
 999
 856
 891
 565
 523
 622
 104
 681
 980
  93
 470
 898
 449
 202
 894
 820
 986
 465
 993
 869
 441
 219
  62
 915
 178
 176
 474
 625
 401
 420
 726
 721
 724
 786
 631
 538
 333
 352
 386
 395
 472
 120
 896
 187
 603
 446
 546
 597
  60
 381
 587
 850
 185
 902
 922
 992
 929
 687
 390
 231
1000
 874
 393
 454
 741
 818
 163
 511
 831
 593
 384
 490
 509
 855
 167
 338
 859
 129
 263
 369
 813
 516
 698
 897
 799
 877
  50
 847
 715
 668
 392
 828
 282
 476
 243
 748
 378
 860
 501
 628
 577
 670
 610
 857
 473
  97
 237
  45
   3
 562
 190
 581
 579
 175
 122
 723
 303
 882
 522
 890
 596
 366
  98
 957
 277
 787
  18
 410
 293
 367
 735
 601
 900
 467
 985
 407
  70
 736
 570
 241
 880
 943
 966
 761
  21
  65
 616
 709
 730
 480
 976
 810
 652
 969
 482
 930
 836
 487
 766
 169
 773
 533
  24
  44
  48
 418
 335
 845
   7
 904
 621
 924
 221
 906
 580
  13
 124
 839
 464
 180
 251
 805
 901
 388
   9
  90
 103
 923
  69
 646
 812
 458
 423
 886
 825
 236
 697
 534
 539
 224
 318
 310
  64
 833
 196
 142
 711
 191
 233
 359
 983
  35
 164
 152
 380
 165
 119
 471
 608
 895
 132
 862
 143
 650
 695
 953
 223
 548
 281
 675
 370
  77
 296
  75
 394
 744
 269
 302
 611
 433
 690
 478
 551
 215
 644
 506
 542
 884
 363
  30
 327
 771
 765
 576
 308
 485
 743
 978
  96
 575
 654
 204
 518
 919
 323
 121
 499
  43
 493
 173
 972
 455
 274
 330
  68
 358
 340
 811
 444
 383
 481
 391
 758
 503
 416
 984
 672
 656
 502
 712
 203
 613
 889
 138
 693
 238
 838
 252
 519
 720
 804
 131
 684
 504
  17
 917
 935
 932
 973
 102
 554
 141
 970
 893
 439
 673
 567
 963
 946
 415
 110
 406
 332
 115
 606
 987
 160
 447
  54
 988
 997
 634
  61
 803
 950
 497
 412
 199
 108
  85
 848
 782
 669
 909
 888
 177
 272
 991
 933
 945
 227
 961
 921
 517
  72
  63
 710
 618
 694
 230
 775
 536
 633
 356
 347
 526
  94
 505
 636
 242
  38
 784
 440
 592
 814
 776
 974
 699
 640
   1
 682
 450
  52
 261
 594
 260
 925
 424
 225
 643
 249
 686
 400
 754
  37
 218
  22
  12
 212
 716
 635
 728
 630
 301
 430
 206
 201
  16
 938
 432
 256
 583
 934
 461
 701
 794
 911
 584
 403
 385
 830
 927
 793
 268
 872
 460
 197
 477
 544
 112
 756
 768
 240
 292
 307
 331
 676
 767
 864
 521
 528
 425
 960
 770
 387
